TR32824|c0_g1_i1_100.00_1	D9IQ16	34.211	76	50	0	8	235	250	325	4.98e-09	56.6	gi|667467109|sp|D9IQ16.1|GXN_ACRMI	135	26	38	0	50.00	2	0	TACCGGTNYNPASHVCCENTILNSQHFRTSCCLNKNYNPHFEMCCGGKVIYAGYMARMSCCGDGLHYPDFQVCCEG	TGCCGAVGYNQVNSLCCEGTVVPKSPSKPVCCGTTSYNPLTELCCDGIAFFKTGFIRPTCCGGAIYDATVARCCDG	422	338	RecName: Full=Galaxin; Flags: Precursor [Acropora millepora]
TR32824|c0_g1_i1_100.00_1	D9IQ16	32.039	103	67	2	5	313	195	294	1.69e-08	55.1	gi|667467109|sp|D9IQ16.1|GXN_ACRMI	131	33	50	3	48.54	2	0	KTACCGGTNYNPASHVCCENTILNSQHFRTSCCLNKNYNPHFEMCCGGKVIYAGYMARMSCCGDGLHYPDFQVCCEGKVLSSNFGQTKCCKDQNYNPTVHACC	QAACCGDMGYNRNTHLCCDSNVL-PMPAMGACCGSWTYSQQTHLCCEGVQLYKGM--NTGCCGAVGYNQVNSLCCEGTVVPKSPSKPVCCGTTSYNPLTELCC	422	338	RecName: Full=Galaxin; Flags: Precursor [Acropora millepora]
TR32824|c0_g1_i1_100.00_1	D9IQ16	31.532	111	71	3	17	337	55	164	2.15e-08	54.7	gi|667467109|sp|D9IQ16.1|GXN_ACRMI	130	35	53	5	47.75	2	0	CGGTNYNPASHVCCENTILNSQHFRTSCCLNKNYNPHFEMCCGGKVIYAGYMARMSCCGDGLHYPDFQVCCEGKVLSSNFGQTK---CCKDQNYNPTVHACC-AEKIVEVG	CGGVLYNPAAEMCCHGNVEPRVGASPMCCESSSYDPSTQMCCEGTVSNKPPGIAM-CCGSEAYDANSQICCNGNINTKATGPTAQPGCCGEFSYDAASQLCCDSHPVLMVG	422	338	RecName: Full=Galaxin; Flags: Precursor [Acropora millepora]
TR32824|c0_g1_i1_100.00_1	D9IQ16	27.103	107	76	1	14	328	82	188	4.49e-07	50.8	gi|667467109|sp|D9IQ16.1|GXN_ACRMI	120	29	51	2	47.66	2	0	CCGGTNYNPASHVCCENTILNSQHFRTSCCLNKNYNPHFEMCCGGKV--IYAGYMARMSCCGDGLHYPDFQVCCEGKVLSSNFGQTKCCKDQNYNPTVHACCAEKIV	CCESSSYDPSTQMCCEGTVSNKPPGIAMCCGSEAYDANSQICCNGNINTKATGPTAQPGCCGEFSYDAASQLCCDSHPVLMVGSLPSCCGRNGYDANTSLCCGDNNV	422	338	RecName: Full=Galaxin; Flags: Precursor [Acropora millepora]
TR32824|c0_g1_i1_100.00_1	D9IQ16	33.333	102	65	3	11	313	224	323	6.99e-07	50.4	gi|667467109|sp|D9IQ16.1|GXN_ACRMI	119	34	49	3	48.04	2	0	ACCGGTNYNPASHVCCENTILNSQHFRTSCCLNKNYNPHFEMCCGGKVIYAGYMARMSCCGDGLHYPDFQVCCEG-KVLSSNFGQTKCCKDQNYNPTVHACC	ACCGSWTYSQQTHLCCEGVQL-YKGMNTGCCGAVGYNQVNSLCCEGTVVPKS-PSKPVCCGTTSYNPLTELCCDGIAFFKTGFIRPTCCGGAIYDATVARCC	422	338	RecName: Full=Galaxin; Flags: Precursor [Acropora millepora]
TR32824|c0_g1_i1_100.00_1	D9IQ16	27.885	104	74	1	2	313	137	239	1.73e-05	46.2	gi|667467109|sp|D9IQ16.1|GXN_ACRMI	108	29	47	1	45.19	2	0	GKTACCGGTNYNPASHVCCENTILNSQHFRTSCCLNKNYNPHFEMCCGGKVIYAGYMARMSCCGDGLHYPDFQVCCEGKVLSSNFGQTKCCKDQNYNPTVHACC	AQPGCCGEFSYDAASQLCCDSHPVLMVGSLPSCCGRNGYDANTSLCCGDNNVAFVSGPQAACCGDMGYNRNTHLCCDSNVLPMP-AMGACCGSWTYSQQTHLCC	422	338	RecName: Full=Galaxin; Flags: Precursor [Acropora millepora]
TR32824|c0_g1_i1_100.00_1	D9IQ16	28.972	107	72	3	11	328	168	271	2.33e-04	43.1	gi|667467109|sp|D9IQ16.1|GXN_ACRMI	100	31	47	4	43.93	2	0	ACCGGTNYNPASHVCC-ENTILNSQHFRTSCCLNKNYNPHFEMCCGGKVIYAGYMARMSCCGDGLHYPDFQVCCEGKVLSSNFGQTKCCKDQNYNPTVHACCAEKIV	SCCGRNGYDANTSLCCGDNNVAFVSGPQAACCGDMGYNRNTHLCCDSNVLPMPAMG--ACCGSWTYSQQTHLCCEGVQLYKGM-NTGCCGAVGYNQVNSLCCEGTVV	422	338	RecName: Full=Galaxin; Flags: Precursor [Acropora millepora]
TR14896|c0_g1_i1_100.00_1	D9IQ16	33.121	157	80	3	5	475	165	296	4.75e-16	77.8	gi|667467109|sp|D9IQ16.1|GXN_ACRMI	190	52	67	25	42.68	2	0	NVSQCCADKSYNALTSICCEGNPVVRMAGALTQCCGLESYNPLDSLCCNLKVVPRRYRNMTQCCGDRHYNPATHVCCNGEDISRRQVGDNIQCCGKKSYNNQTHVCCNGRLLRKRYKEYTMCCGRRSYSSRPRSSRRKPVCCAKKLYYTRTRFCCKG	SLPSCCGRNGYDANTSLCCGDNNVAFVSGPQAACCGDMGYNRNTHLCCDSNVLPMPA--MGACCGSWTYSQQTHLCCEGVQLYK---GMNTGCCGAVGYNQVNSLCCEGTVVPKS--------------------PSKPVCCGTTSYNPLTELCCDG	567	338	RecName: Full=Galaxin; Flags: Precursor [Acropora millepora]
TR14896|c0_g1_i1_100.00_1	D9IQ16	28.070	171	110	4	14	496	81	248	1.16e-11	65.5	gi|667467109|sp|D9IQ16.1|GXN_ACRMI	158	48	69	13	40.35	2	0	QCCADKSYNALTSICCEGNPVVRMAGALTQCCGLESYNPLDSLCCNLKVVPRRYRNMTQ--CCGDRHYNPATHVCCNGEDISRRQVGDNIQCCGKKSYNNQTHVCCNGRLLRKRYKEYTMCCGRRSY--------SSRPRSSRRKPVCCAKKLYYTRTRFCCKGKMQRKRI	MCCESSSYDPSTQMCCEGT-VSNKPPGIAMCCGSEAYDANSQICCNGNINTKATGPTAQPGCCGEFSYDAASQLCCDSHPV--LMVGSLPSCCGRNGYDANTSLCCGDNNVAFVSGPQAACCGDMGYNRNTHLCCDSNVLPMPAMGACCGSWTYSQQTHLCCEGVQLYKGM	567	338	RecName: Full=Galaxin; Flags: Precursor [Acropora millepora]
TR14896|c0_g1_i1_100.00_1	D9IQ16	29.167	168	99	7	20	481	55	216	4.77e-10	60.8	gi|667467109|sp|D9IQ16.1|GXN_ACRMI	146	49	72	20	42.86	2	0	CADKSYNALTSICCEGNPVVRMAGALTQCCGLESYNPLDSLCCNLKVVPRRYRNMTQCCGDRHYNPATHVCCNGEDISRRQVGDNIQ--CCGKKSYNNQTHVCCNGRLL-----------RKRYKEYT-MCCGRRSYSSRPRSSRRKPVCCAKKLYYTRTRFCCKGKM	CGGVLYNPAAEMCCHGNVEPRV-GASPMCCESSSYDPSTQMCCE-GTVSNKPPGIAMCCGSEAYDANSQICCNG-NINTKATGPTAQPGCCGEFSYDAASQLCCDSHPVLMVGSLPSCCGRNGYDANTSLCCG---DNNVAFVSGPQAACCGDMGYNRNTHLCCDSNV	567	338	RecName: Full=Galaxin; Flags: Precursor [Acropora millepora]
TR14896|c0_g1_i1_100.00_1	D9IQ16	31.206	141	83	5	80	469	46	183	3.20e-08	55.5	gi|667467109|sp|D9IQ16.1|GXN_ACRMI	132	44	62	14	43.97	2	0	RMAGALTQCCGLESYNPLDSLCCNLKVVPRRYRNMTQCCGDRHYNPATHVCCNGEDISRRQVGDNIQCCGKKSYNNQTHVCCNGRLLRKRYKEYTM--CCGRRSYSSRPR---------SSRRKPVCCAKKLYYTRTRFCC	RQAPAPQLSCGGVLYNPAAEMCCHGNVEPRVGAS-PMCCESSSYDPSTQMCCEGT-VSNKPPGIAM-CCGSEAYDANSQICCNGNINTKATGPTAQPGCCGEFSYDAASQLCCDSHPVLMVGSLPSCCGRNGYDANTSLCC	567	338	RecName: Full=Galaxin; Flags: Precursor [Acropora millepora]
TR16879|c1_g1_i1_100.00_1	D9IQ16	41.096	73	38	2	149	352	83	155	1.91e-08	54.3	gi|667467109|sp|D9IQ16.1|GXN_ACRMI	129	30	41	5	56.16	2	0	CGSRSYDSTTQICCAQSVFDIKHGWS-CCGHRNYDPSQFVCCQGKVHSIATG----FACCGSISYDPNMAVCC	CESSSYDPSTQMCCEGTVSNKPPGIAMCCGSEAYDANSQICCNGNINTKATGPTAQPGCCGEFSYDAASQLCC	383	338	RecName: Full=Galaxin; Flags: Precursor [Acropora millepora]
TR16879|c1_g1_i1_100.00_1	D9IQ16	37.349	83	48	3	128	367	48	129	2.76e-08	53.9	gi|667467109|sp|D9IQ16.1|GXN_ACRMI	128	31	48	4	57.83	2	0	VPSQSATCGSRSYDSTTQICCAQSVFDIKHGWS--CCGHRNYDPSQFVCCQGKVHSIATGFA-CCGSISYDPNMAVCCSGKLH	APAPQLSCGGVLYNPAAEMCCHGNV-EPRVGASPMCCESSSYDPSTQMCCEGTVSNKPPGIAMCCGSEAYDANSQICCNGNIN	383	338	RecName: Full=Galaxin; Flags: Precursor [Acropora millepora]
TR16879|c1_g1_i1_100.00_1	D9IQ16	29.545	88	62	0	119	382	189	276	1.55e-07	51.6	gi|667467109|sp|D9IQ16.1|GXN_ACRMI	122	26	42	0	47.73	2	0	AYIVPSQSATCGSRSYDSTTQICCAQSVFDIKHGWSCCGHRNYDPSQFVCCQGKVHSIATGFACCGSISYDPNMAVCCSGKLHKNVPS	AFVSGPQAACCGDMGYNRNTHLCCDSNVLPMPAMGACCGSWTYSQQTHLCCEGVQLYKGMNTGCCGAVGYNQVNSLCCEGTVVPKSPS	383	338	RecName: Full=Galaxin; Flags: Precursor [Acropora millepora]
TR16879|c1_g1_i1_100.00_1	D9IQ16	32.184	87	56	2	125	376	162	248	1.20e-05	46.2	gi|667467109|sp|D9IQ16.1|GXN_ACRMI	108	28	43	3	49.43	2	0	IVPSQSATCGSRSYDSTTQICCAQSVFDIKHG--WSCCGHRNYDPSQFVCCQGKVHSIATGFACCGSISYDPNMAVCCSG-KLHKNV	MVGSLPSCCGRNGYDANTSLCCGDNNVAFVSGPQAACCGDMGYNRNTHLCCDSNVLPMPAMGACCGSWTYSQQTHLCCEGVQLYKGM	383	338	RecName: Full=Galaxin; Flags: Precursor [Acropora millepora]
TR16879|c1_g1_i1_100.00_1	D9IQ16	34.177	79	47	2	131	352	105	183	1.70e-05	45.8	gi|667467109|sp|D9IQ16.1|GXN_ACRMI	107	27	42	5	53.16	2	0	PSQSATCGSRSYDSTTQICCAQSVFDIKHGWS----CCGHRNYDPSQFVCCQG-KVHSIATGFACCGSISYDPNMAVCC	PGIAMCCGSEAYDANSQICCNGNINTKATGPTAQPGCCGEFSYDAASQLCCDSHPVLMVGSLPSCCGRNGYDANTSLCC	383	338	RecName: Full=Galaxin; Flags: Precursor [Acropora millepora]
TR16879|c1_g1_i1_100.00_1	D9IQ16	33.333	78	51	1	128	358	219	296	3.68e-05	45.1	gi|667467109|sp|D9IQ16.1|GXN_ACRMI	105	26	37	1	47.44	2	0	VPSQSATCGSRSYDSTTQICCAQSVFDIKHGWSCCGHRNYDPSQFVCCQGKV-HSIATGFACCGSISYDPNMAVCCSG	MPAMGACCGSWTYSQQTHLCCEGVQLYKGMNTGCCGAVGYNQVNSLCCEGTVVPKSPSKPVCCGTTSYNPLTELCCDG	383	338	RecName: Full=Galaxin; Flags: Precursor [Acropora millepora]
TR16879|c1_g1_i1_100.00_1	D9IQ16	33.721	86	52	3	137	382	249	333	3.01e-04	42.4	gi|667467109|sp|D9IQ16.1|GXN_ACRMI	98	29	39	5	45.35	2	0	QSATCGSRSYDSTTQICCAQSVFDIKHGWS-CCGHRNYDPSQFVCCQGKVHSIATGF---ACCGSISYDPNMAVCCSGKLHKNVPS	NTGCCGAVGYNQVNSLCCEGTVVPKSPSKPVCCGTTSYNPLTELCCDG-IAFFKTGFIRPTCCGGAIYDATVARCCDGVPTYNVAS	383	338	RecName: Full=Galaxin; Flags: Precursor [Acropora millepora]
TR34495|c0_g2_i1_100.00_1	D9IQ16	31.136	273	157	8	275	1009	55	324	5.39e-33	129	gi|667467109|sp|D9IQ16.1|GXN_ACRMI	323	85	121	31	44.32	2	0	CWYKLYDRSTHYCCNGGVQKKTAEKNACCGRDGYNKITHICCKGNLESNEDGSKKCCGKTPYDTTSKMCCQGKIH-----ESEGRECCARESYDKSSEGCCDNKLV--------------YDRSTESCCGDE--VLKRDGDKGCCWYRPYDRSTHYCCNGGVQEKTEDENACCGTEAYDSEIDLCCKG-KLYHNDDLDFACCKDKAYEIESEICCEGTIHDASKK---CCGKASYDEEDQGCCNRVVY---GLAEEKCCGKKVVPADDESC*D	CGGVLYNPAAEMCCHGNVEPRVGASPMCCESSSYDPSTQMCCEGTVSNKPPGIAMCCGSEAYDANSQICCNGNINTKATGPTAQPGCCGEFSYDAASQLCCDSHPVLMVGSLPSCCGRNGYDANTSLCCGDNNVAFVSGPQAACCGDMGYNRNTHLCCDSNVLPMPA-MGACCGSWTYSQQTHLCCEGVQLYKG--MNTGCCGAVGYNQVNSLCCEGTVVPKSPSKPVCCGTTSYNPLTELCCDGIAFFKTGFIRPTCCGGAIYDATVARCCD	1121	338	RecName: Full=Galaxin; Flags: Precursor [Acropora millepora]
TR34495|c0_g2_i1_100.00_1	D9IQ16	29.333	150	88	3	194	592	185	333	8.72e-13	72.0	gi|667467109|sp|D9IQ16.1|GXN_ACRMI	175	44	61	18	40.67	2	0	ENYVGEIFDDNKGMCNGESYDRNTH--------------GCCWYKLYDRSTHYCCNGGVQKKTAEKNACCGRDGYNKITHICCKGNLESNEDGSKKCCGKTPYDTTSKMCCQGKIHESEG---RECCARESYDKSSEGCCDNKLVYDRST	DNNVAFVSGPQAACCGDMGYNRNTHLCCDSNVLPMPAMGACCGSWTYSQQTHLCCE-GVQLYKGMNTGCCGAVGYNQVNSLCCEGTVVPKSPSKPVCCGTTSYNPLTELCCDGIAFFKTGFIRPTCCGGAIYDATVARCCDGVPTYNVAS	1121	338	RecName: Full=Galaxin; Flags: Precursor [Acropora millepora]
TR34495|c0_g1_i1_100.00_1	D9IQ16	30.996	271	156	8	275	1003	55	322	2.54e-32	128	gi|667467109|sp|D9IQ16.1|GXN_ACRMI	321	84	120	31	44.28	2	0	CWYKLYDRSTHYCCNGGVQKKTAEKNACCGRDGYNKITHICCKGNLESNEDGSKKCCGKTPYDTTSKMCCQGKIH-----ESEGRECCARESYDKSSEGCCDNKLV--------------YDRSTESCCGDE--VLKRDGDKGCCWYRPYDRSTHYCCNGGVQEKTEDENACCGTEAYDSEIDLCCKG-KLYHNDDLDFACCKDKAYEIESEICCEGTIHDASKK---CCGKASYDEEDQGCCNRVVY---GLAEEKCCGKKVVPADDESC	CGGVLYNPAAEMCCHGNVEPRVGASPMCCESSSYDPSTQMCCEGTVSNKPPGIAMCCGSEAYDANSQICCNGNINTKATGPTAQPGCCGEFSYDAASQLCCDSHPVLMVGSLPSCCGRNGYDANTSLCCGDNNVAFVSGPQAACCGDMGYNRNTHLCCDSNVLPMPA-MGACCGSWTYSQQTHLCCEGVQLYKG--MNTGCCGAVGYNQVNSLCCEGTVVPKSPSKPVCCGTTSYNPLTELCCDGIAFFKTGFIRPTCCGGAIYDATVARC	1269	338	RecName: Full=Galaxin; Flags: Precursor [Acropora millepora]
TR34495|c0_g1_i1_100.00_1	D9IQ16	29.333	150	88	3	194	592	185	333	1.33e-12	72.0	gi|667467109|sp|D9IQ16.1|GXN_ACRMI	175	44	61	18	40.67	2	0	ENYVGEIFDDNKGMCNGESYDRNTH--------------GCCWYKLYDRSTHYCCNGGVQKKTAEKNACCGRDGYNKITHICCKGNLESNEDGSKKCCGKTPYDTTSKMCCQGKIHESEG---RECCARESYDKSSEGCCDNKLVYDRST	DNNVAFVSGPQAACCGDMGYNRNTHLCCDSNVLPMPAMGACCGSWTYSQQTHLCCE-GVQLYKGMNTGCCGAVGYNQVNSLCCEGTVVPKSPSKPVCCGTTSYNPLTELCCDGIAFFKTGFIRPTCCGGAIYDATVARCCDGVPTYNVAS	1269	338	RecName: Full=Galaxin; Flags: Precursor [Acropora millepora]
TR47694|c0_g1_i1_100.00_1	D9IQ16	25.000	260	134	10	196	870	97	330	2.74e-04	46.2	gi|667467109|sp|D9IQ16.1|GXN_ACRMI	108	65	88	61	33.85	1	0	EMQLSTGPPSFALC-GGESYDKSQENCCGGKIYSLTS-----QGCCGNSSIYTFAQQGCCNDDHVFTYGMETCTPQVLKPDWENPDVNFECAANWPPATYG-----------NYWLRYCAAGQHMAWAMTPSCKVGWLSVKQDSLADAEKKALDACQKKATAYNGETCYVFDRDGSGCRRQRCGDEMYDASVQACCKGKV---------------YDRQTEGCCEGVVFKAQ---TEGCCQGRIYTKAVQSCCGGQTLYD	EGTVSNKPPGIAMCCGSEAYDANSQICCNGNINTKATGPTAQPGCCGEFS-YDAASQLCCDSHPVLMVGS---LPSCCGRNGYDANTSLCCGDNNVAFVSGPQAACCGDMGYNRNTHLCCDSNVLPMPAMGACCGSWTYSQQTHL----------CCEGVQLYKGMN--------TGC----CGAVGYNQVNSLCCEGTVVPKSPSKPVCCGTTSYNPLTELCCDGIAFFKTGFIRPTCCGGAIYDATVARCCDGVPTYN	1246	338	RecName: Full=Galaxin; Flags: Precursor [Acropora millepora]
TR24751|c0_g1_i1_100.00_1	B8UU51	35.088	171	98	8	341	832	64	228	7.53e-17	83.2	gi|667467108|sp|B8UU51.1|GXN2_ACRMI	204	60	78	13	45.61	2	0	WPFDPHTHICCKG--YVRPLLGPWYLNKCCGSLNYNRQTHWCCDGKLRRNVLGEVTARPGCCGRQSYNPT---TQRCCHGVVTNSNVPYYLPSS-CCRTKSYNPFQSTCCDGQVQPLVGGFRYTR-CCGARSMNTQEAKCCEGQVKYTSNPKADRCCGKTMYHTSFQRCCN	YKYNPVTHLCCNDNPAVKPA-SPTAIPGCCDQSAYDRNTHLCCDATLSPH--PPATTLPACCGPVVYDSSVNSTQLCCAGAVLNK--PVGVPRALCCGTATYNPATQVCCMGFPVPKAGGPNATSLCCGPFSYDISTQMCCNGNIALKSA-THTHCCGMFSFNPATHLCCN	1154	275	RecName: Full=Galaxin-2; Flags: Precursor [Acropora millepora]
TR24751|c0_g1_i1_100.00_1	B8UU51	34.483	145	86	5	359	787	134	271	1.19e-11	68.2	gi|667467108|sp|B8UU51.1|GXN2_ACRMI	165	50	68	9	46.90	2	0	THICCKGYV--RPLLGPWYLNKCCGSLNYNRQTHWCCDGKLRRNVLGEVTARPGCCGRQSYNPTTQRCCHGVVTNSNVPYYLPSSCCRTKSYNPFQSTCCDGQVQPLVGGFRYTRCCGARSMNTQEAKCCEGQVKYTSNPKADRC	TQLCCAGAVLNKPVGVPRAL--CCGTATYNPATQVCCMG-FPVPKAGGPNATSLCCGPFSYDISTQMCCNGNIALKSATH---THCCGMFSFNPATHLCCNGYPYPKLG-FISPSCCGSLVYDTLTMRCCDGSHVVLITPNQDPC	1154	275	RecName: Full=Galaxin-2; Flags: Precursor [Acropora millepora]
TR24751|c0_g1_i1_100.00_1	B8UU51	33.043	115	62	4	347	676	160	264	6.84e-09	59.7	gi|667467108|sp|B8UU51.1|GXN2_ACRMI	143	38	55	15	47.83	2	0	FDPHTHICCKGYVRPLLG-PWYLNKCCGSLNYNRQTHWCCDGKLRRNVLGEVTARPGCCGRQSYNPTTQRCCHGVVTNSNVPY----YLPSSCCRTKSYNPFQSTCCDGQVQPLV	YNPATQVCCMGFPVPKAGGPNATSLCCGPFSYDISTQMCCNG----NIALKSATHTHCCGMFSFNPATHLCCNG------YPYPKLGFISPSCCGSLVYDTLTMRCCDGSHVVLI	1154	275	RecName: Full=Galaxin-2; Flags: Precursor [Acropora millepora]
TR24751|c0_g1_i1_100.00_1	B8UU51	51.111	45	21	1	338	472	216	259	5.11e-05	48.1	gi|667467108|sp|B8UU51.1|GXN2_ACRMI	113	23	28	1	62.22	2	0	MWPFDPHTHICCKGYVRPLLGPWYLNKCCGSLNYNRQTHWCCDGK	MFSFNPATHLCCNGYPYPKLG-FISPSCCGSLVYDTLTMRCCDGS	1154	275	RecName: Full=Galaxin-2; Flags: Precursor [Acropora millepora]
TR24751|c0_g2_i1_100.00_1	B8UU51	35.088	171	98	8	341	832	64	228	7.47e-17	83.2	gi|667467108|sp|B8UU51.1|GXN2_ACRMI	204	60	78	13	45.61	2	0	WPFDPHTHICCKG--YVRPLLGPWYLNKCCGSLNYNRQTHWCCDGKLRRNVLGEVTARPGCCGRQSYNPT---TQRCCHGVVTNSNVPYYLPSS-CCRTKSYNPFQSTCCDGQVQPLVGGFRYTR-CCGARSMNTQEAKCCEGQVKYTSNPKADRCCGKTMYHTSFQRCCN	YKYNPVTHLCCNDNPAVKPA-SPTAIPGCCDQSAYDRNTHLCCDATLSPH--PPATTLPACCGPVVYDSSVNSTQLCCAGAVLNK--PVGVPRALCCGTATYNPATQVCCMGFPVPKAGGPNATSLCCGPFSYDISTQMCCNGNIALKSA-THTHCCGMFSFNPATHLCCN	1152	275	RecName: Full=Galaxin-2; Flags: Precursor [Acropora millepora]
TR24751|c0_g2_i1_100.00_1	B8UU51	34.483	145	86	5	359	787	134	271	1.18e-11	68.2	gi|667467108|sp|B8UU51.1|GXN2_ACRMI	165	50	68	9	46.90	2	0	THICCKGYV--RPLLGPWYLNKCCGSLNYNRQTHWCCDGKLRRNVLGEVTARPGCCGRQSYNPTTQRCCHGVVTNSNVPYYLPSSCCRTKSYNPFQSTCCDGQVQPLVGGFRYTRCCGARSMNTQEAKCCEGQVKYTSNPKADRC	TQLCCAGAVLNKPVGVPRAL--CCGTATYNPATQVCCMG-FPVPKAGGPNATSLCCGPFSYDISTQMCCNGNIALKSATH---THCCGMFSFNPATHLCCNGYPYPKLG-FISPSCCGSLVYDTLTMRCCDGSHVVLITPNQDPC	1152	275	RecName: Full=Galaxin-2; Flags: Precursor [Acropora millepora]
TR24751|c0_g2_i1_100.00_1	B8UU51	33.043	115	62	4	347	676	160	264	6.80e-09	59.7	gi|667467108|sp|B8UU51.1|GXN2_ACRMI	143	38	55	15	47.83	2	0	FDPHTHICCKGYVRPLLG-PWYLNKCCGSLNYNRQTHWCCDGKLRRNVLGEVTARPGCCGRQSYNPTTQRCCHGVVTNSNVPY----YLPSSCCRTKSYNPFQSTCCDGQVQPLV	YNPATQVCCMGFPVPKAGGPNATSLCCGPFSYDISTQMCCNG----NIALKSATHTHCCGMFSFNPATHLCCNG------YPYPKLGFISPSCCGSLVYDTLTMRCCDGSHVVLI	1152	275	RecName: Full=Galaxin-2; Flags: Precursor [Acropora millepora]
TR24751|c0_g2_i1_100.00_1	B8UU51	51.111	45	21	1	338	472	216	259	5.09e-05	48.1	gi|667467108|sp|B8UU51.1|GXN2_ACRMI	113	23	28	1	62.22	2	0	MWPFDPHTHICCKGYVRPLLGPWYLNKCCGSLNYNRQTHWCCDGK	MFSFNPATHLCCNGYPYPKLG-FISPSCCGSLVYDTLTMRCCDGS	1152	275	RecName: Full=Galaxin-2; Flags: Precursor [Acropora millepora]
TR7181|c0_g1_i1_100.00_1	D9IQ16	36.364	121	70	4	57	410	111	227	1.25e-14	72.0	gi|667467109|sp|D9IQ16.1|GXN_ACRMI	175	44	61	7	50.41	3	0	CGNEIWDPLYDVCCEDNAYEQRYGPYS--GCCGKNIYNAETHVCCSGRTFPIQRTG-LTQCCGRRPYDAEKSICCDSQYVMSRSSPSTQCCGKEAFSSDISVCCALKVVDRVAGNMTQCCG	CGSEAYDANSQICCNGNINTKATGPTAQPGCCGEFSYDAASQLCCD--SHPVLMVGSLPSCCGRNGYDANTSLCCGDNNVAFVSGPQAACCGDMGYNRNTHLCCDSNVLPMPA--MGACCG	411	338	RecName: Full=Galaxin; Flags: Precursor [Acropora millepora]
TR7181|c0_g1_i1_100.00_1	D9IQ16	31.387	137	84	5	21	410	38	171	1.48e-12	66.2	gi|667467109|sp|D9IQ16.1|GXN_ACRMI	160	43	68	10	49.64	3	0	EAIASQRKKRA-----VCGNEIWDPLYDVCCEDNAYEQRYGPYSGCCGKNIYNAETHVCCSGRTFPIQRTGLTQCCGRRPYDAEKSICCDSQYVMSRSSPSTQ--CCGKEAFSSDISVCCALKVVDRVAGNMTQCCG	NALKSRDRRQAPAPQLSCGGVLYNPAAEMCCHGNV-EPRVGASPMCCESSSYDPSTQMCCEG-TVSNKPPGIAMCCGSEAYDANSQICCNGNINTKATGPTAQPGCCGEFSYDAASQLCCDSHPVLMV-GSLPSCCG	411	338	RecName: Full=Galaxin; Flags: Precursor [Acropora millepora]
TR7181|c0_g1_i1_100.00_1	D9IQ16	33.333	108	68	2	57	380	170	273	3.56e-10	59.7	gi|667467109|sp|D9IQ16.1|GXN_ACRMI	143	36	49	4	45.37	3	0	CGNEIWDPLYDVCCEDNAYEQRYGPYSGCCGKNIYNAETHVCCSGRTFPIQRTGLTQCCGRRPYDAEKSICCDSQYVMSRSSPSTQCCGKEAFSSDISVCCALKVVDR	CGRNGYDANTSLCCGDNNVAFVSGPQAACCGDMGYNRNTHLCCDSNVLPMPAMG--ACCGSWTYSQQTHLCCEG--VQLYKGMNTGCCGAVGYNQVNSLCCEGTVVPK	411	338	RecName: Full=Galaxin; Flags: Precursor [Acropora millepora]
TR7181|c0_g1_i1_100.00_1	D9IQ16	28.155	103	71	2	51	359	224	323	9.72e-05	43.9	gi|667467109|sp|D9IQ16.1|GXN_ACRMI	102	29	42	3	40.78	3	0	AVCGNEIWDPLYDVCCEDNAYEQRYGPYSGCCGKNIYNAETHVCCSGRTFPIQRTGLTQCCGRRPYDAEKSICCDSQYVMSRSSPSTQCCGKEAFSSDISVCC	ACCGSWTYSQQTHLCCE--GVQLYKGMNTGCCGAVGYNQVNSLCCEGTVVP-KSPSKPVCCGTTSYNPLTELCCDGIAFFKTGFIRPTCCGGAIYDATVARCC	411	338	RecName: Full=Galaxin; Flags: Precursor [Acropora millepora]
TR16879|c0_g1_i1_100.00_1	D9IQ16	30.530	321	173	9	18	947	55	336	1.12e-33	134	gi|667467109|sp|D9IQ16.1|GXN_ACRMI	337	98	149	50	46.42	3	0	CGNTHFHPSTQICCN-NVVLKKSSGNKCCGTQTYNPLTEVCCNGNILQKTSG-DQCCGSRNYHSHSRVCCNGQIRSKLPGGS----CCGSHAYNSNSHICCSSRIYLKKGG-SSCCNSQIYNSKLSICCYGRILSKWRG--TSCCNSRNYNPKGQLCCSGRVISKKYGTSCCGTKAYHPEAYVCCSSRLQPRKMGASCCGSVNYDPSRNVCCFNNVLSRSSGTACCGSINFDPSQYTCCGNHVYPKSFGSHCCVSWGLYLDPYSYGVPMSPSTSVCCQGNVNSKS--LGTSCCGGQNYDSTTHICCNRNVYPKSNRNSCCG	CGGVLYNPAAEMCCHGNVEPRVGASPMCCESSSYDPSTQMCCEGTVSNKPPGIAMCCGSEAYDANSQICCNGNINTKATGPTAQPGCCGEFSYDAASQLCCDSHPVLMVGSLPSCCGRNGYDANTSLCCGDNNVAFVSGPQAACCGDMGYNRNTHLCCDSNVLPMPAMGACCGSWTYSQQTHLCCEGVQLYKGMNTGCCGAVGYNQVNSLCCEGTVVPKS------------PSKPVCCGTTSY-------------------------NPLTELCCDGIAFFKTGFIRPTCCGGAIYDATVARCCDG--VPTYNVASCAG	1708	338	RecName: Full=Galaxin; Flags: Precursor [Acropora millepora]
TR16879|c0_g1_i1_100.00_1	D9IQ16	31.818	308	184	9	189	1073	31	325	4.17e-33	132	gi|667467109|sp|D9IQ16.1|GXN_ACRMI	333	98	146	26	47.40	3	0	RNYHSHSRVCCNGQIRSKLPGGSCCGSHAYNSNSHICCSSRIYLKKGGSS-CCNSQIYNSKLSICCYGRILSKWRGTS-CCNSRNYNPKGQLCCSGRVISKKYGTS----CCGTKAYHPEAYVCCSSRLQPRKMGA---SCCGSVNYDPSRNVCCFNNVLSRSSG--TACCGSINFDPSQYTCCGNHVYPKSFGSHCCVSWGLYLDPYSYGVPMSPSTSVCCQGNVNSKSLGTSCCGGQNYDSTTHICCNRNVYPKS-NRNSCCGSVPYNTGSHICCSGNLLSKSSG-QTSCCGSKNYNPTSQRCCSG	RDAHSDTNALKSRDRRQAPAPQLSCGGVLYNPAAEMCCHGNVEPRVGASPMCCESSSYDPSTQMCCEGTVSNKPPGIAMCCGSEAYDANSQICCNGNINTKATGPTAQPGCCGEFSYDAASQLCCDS--HPVLMVGSLPSCCGRNGYDANTSLCCGDNNVAFVSGPQAACCGDMGYNRNTHLCCDSNVLPMPAMGACCGSWTY-----------SQQTHLCCEGVQLYKGMNTGCCGAVGYNQVNSLCCEGTVVPKSPSKPVCCGTTSYNPLTELCCDGIAFFKTGFIRPTCCGGAIYDATVARCCDG	1708	338	RecName: Full=Galaxin; Flags: Precursor [Acropora millepora]
TR16879|c0_g1_i1_100.00_1	D9IQ16	31.429	245	153	7	12	707	81	323	1.83e-28	119	gi|667467109|sp|D9IQ16.1|GXN_ACRMI	298	77	121	15	49.39	3	0	QCCGNTHFHPSTQICCNNVVLKKSSG-NKCCGTQTYNPLTEVCCNGNILQKTSGDQ----CCGSRNYHSHSRVCCNGQ---IRSKLPGGSCCGSHAYNSNSHICCSSR--IYLKKGGSSCCNSQIYNSKLSICCYGRILSKWRGTSCCNSRNYNPKGQLCCSGRVISKKYGTSCCGTKAYHPEAYVCCSSRLQPRKMGAS-CCGSVNYDPSRNVCCFNNVLSRSSGT--ACCGSINFDPSQYTCC	MCCESSSYDPSTQMCCEGTVSNKPPGIAMCCGSEAYDANSQICCNGNINTKATGPTAQPGCCGEFSYDAASQLCCDSHPVLMVGSLP--SCCGRNGYDANTSLCCGDNNVAFVSGPQAACCGDMGYNRNTHLCCDSNVLPMPAMGACCGSWTYSQQTHLCCEGVQLYKGMNTGCCGAVGYNQVNSLCCEGTVVPKSPSKPVCCGTTSYNPLTELCCDGIAFFKTGFIRPTCCGGAIYDATVARCC	1708	338	RecName: Full=Galaxin; Flags: Precursor [Acropora millepora]
TR16879|c0_g1_i1_100.00_1	D9IQ16	31.907	257	155	6	666	1412	55	299	2.26e-27	116	gi|667467109|sp|D9IQ16.1|GXN_ACRMI	290	82	125	20	48.64	3	0	CGSINFDPSQYTCCGNHVYPKSFGSHCCVSWGLYLDPYSYGVPMSPSTSVCCQGNVNSKSLGTS-CCGGQNYDSTTHICCNRNVYPKSN----RNSCCGSVPYNTGSHICCSGNLLSKSSGQTSCCGSKNYNPTSQRCCSGK--LHVASSGYYCCGSSLYKSSSHVCCSNKILSRSYSSYTGCCGIDTYNIRYYVCCNGNIRWKSQGTSCCGTVNYNSSNQICCGYNLLSRSKGSS-CCGEQNYNPTSERCCYRSSY	CGGVLYNPAAEMCCHGNVEPRVGASPMCCESSSY----------DPSTQMCCEGTVSNKPPGIAMCCGSEAYDANSQICCNGNINTKATGPTAQPGCCGEFSYDAASQLCCDSHPVLMVGSLPSCCGRNGYDANTSLCCGDNNVAFVSGPQAACCGDMGYNRNTHLCCDSNVLP--MPAMGACCGSWTYSQQTHLCCEGVQLYKGMNTGCCGAVGYNQVNSLCCEGTVVPKSPSKPVCCGTTSYNPLTELCCDGIAF	1708	338	RecName: Full=Galaxin; Flags: Precursor [Acropora millepora]
