Protein ID	Annotation	P.flava	E-value
B3EWY9.1	Mucin-like	TR46550|c12_g1_i1	2.74E-126
B3EWZ3.1	Coadhesin	TR5414|c0_g1_i1	1.77E-73
B3EWZ8.1	Ectin	TR56771|c3_g1_i1	2.10E-27
B3EX02.1	MAM and fibronectin-containing protein	TR29726|c0_g1_i1_	7.65E-16
G8HTB6.1	ZP domain-containing protein	TR50792|c5_g2_i1	3.11E-41
B3EX01.1	CUB domain-containing protein	No hit
B8UU59.1	Polycystic kidney disease 1 – related protein	TR9976|c15_g1_i1	3.94E-63
B8UU78.1	EGF and laminin G domain-containing protein	TR27722|c0_g1_i1	2.81E-109
B8V7Q1.1	Protocadherin-like	TR21446|c0_g1_i1	0
B8V7R6.1	Collagen alpha chain	TR9924|c2_g2_i2	3.63E-75
B8VIW9.1	Fibronectin type III domain-containing protein	TR22491|c0_g1_i1	4.00E-141
B3EWZ5.1	MAM and LDL-receptor class A domain-containing protein 1	TR33041|c0_g1_i1	0
B3EWZ6.1	MAM and LDL-receptor class A domain-containing protein 2	TR33041|c0_g1_i1	0
B3EWZ7.1	Threonine-rich protein	No hit
B3EWZ9.1	Hephaestin-like	TR57825|c0_g1_i1	0
B8V7P3.1	Putative carbonic anhydrase	TR3420|c0_g1_i1	1.02E-11
B8V7S0.1	CUB and peptidase domain-containing protein 1	TR27113|c0_g1_i1	1.65E-60
B8VIV4.1	CUB and peptidase domain-containing protein 2	TR27113|c0_g1_i1	1.14E-33
B7W114.1	Cephalotoxin-like protein	No hit
B3EWY6.1	Skeletal aspartic acid-rich protein 1	No hit
B3EWY8.1	Skeletal aspartic acid-rich protein 2	No hit
B3EWY7.1	Acidic skeletal organic matrix protein	No hit
B3EWZ0.1	Secreted acidic protein 1A	No hit
B3EWZ1.1	Secreted acidic protein 1B	No hit
B3EWZ4.1	Secreted acidic protein 2	No hit
B7W112.1	Aspartic and glutamic acid-rich protein	No hit
B3EX00.1	Uncharacterized skeletal organic matrix protein 1	No hit
B7WFQ1.1	Uncharacterized skeletal organic matrix protein 2	No hit
B8RJM0.1	Uncharacterized skeletal organic matrix protein 3	No hit
B8UU74.1	Uncharacterized skeletal organic matrix protein 4	No hit
B3EWZ2.1	Uncharacterized skeletal organic matrix protein 8	No hit
B8VIU6.1	Uncharacterized skeletal organic matrix protein 5	TR32473|c1_g3_i2	5.66E-42
B8VIX3.1	Uncharacterized skeletal organic matrix protein 6	No hit
B8WI85.1	Uncharacterized skeletal organic matrix protein 7	No hit
D9IQ16.1	Galaxin	TR16879|c0_g1_i1	2.64E-35
B8UU51.1	Galaxin-2	TR16879|c0_g1_i1	4.11E-24
P2 / Spis4534	CARP 4	No hit
P15 / Spis3547	CARP5	No hit
P27 / Spis4292	Alpha Integrin-like	No hit
Stylophora_pistillata_16373	SAARP-like	No hit
Stylophora_pistillata_17235	SAARP-like	No hit
ANJ59756.1	CruCA1	TR3420|c0_g1_i1	3.41E-51
ANJ59757.1	CruCA2	TR51952|c0_g1_i1	2.26E-63
ANJ59758.1	CruCA3	TR34026|c11_g4_i1	6.61E-126
ANJ59759.1	CruCA4	TR56750|c0_g1_i1	5.95E-72
ANJ59760.1	CruCA5	TR56750|c0_g1_i1	7.43E-80
ANJ59761.1	CruCA6	TR56750|c0_g1_i1	1.58E-67
C1KIY9.1	SCRiP-1	No hit
C1KIY10.1	SCRiP-2	No hit
ACO24832.1	SCRiP-3a	TR20923|c0_g1_i1	6.07E-16
C1KIZ3.1 	SCRiP-4	No hit
C1KIZ4.1	SCRiP-5	No hit
C1KIZ5.1 	SCRiP-6	No hit
B2ZG38.1	SCRiP-8	No hit
C0H693.1	SCRiP-1a	No hit
C0H694.1	SCRiP-1b	No hit
AFI47691.1	Scleritin	No hit
P84537.1	Carbonic anhydrase	No hit
