description	value	representative
cellular_component	148.0	cellular_component
extracellular region	53.0	extracellular region
collagen trimer	3.0	collagen trimer
extracellular space	22.0	extracellular space
apoplast	2.0	extracellular space
basement membrane	6.0	extracellular space
cell-cell adherens junction	3.0	cell-cell adherens junction
cell surface	11.0	cell surface
membrane	62.0	membrane
cell junction	13.0	cell junction
anchored component of membrane	3.0	anchored component of membrane
cleavage furrow	3.0	cleavage furrow
external side of apical plasma membrane	2.0	cleavage furrow
secretory vesicle	11.0	secretory vesicle
mediator complex	2.0	secretory vesicle
Z disc	3.0	secretory vesicle
peroxisomal membrane	2.0	secretory vesicle
secretory granule	9.0	secretory vesicle
cell cortex	11.0	secretory vesicle
lipid particle	2.0	secretory vesicle
endoplasmic reticulum lumen	4.0	secretory vesicle
cytoplasmic microtubule	2.0	secretory vesicle
actin filament	3.0	secretory vesicle
plasma membrane	35.0	secretory vesicle
integral component of membrane	36.0	integral component of membrane
